{
	"Daily Bosses": {
		"day": -1,
		"size": 11,
		"checklist": true,
		"tasks": {
			"Zakum": {
				"Easy": 10000000,
				"Normal": 3062500
			},
			"Magnus": {
				"Easy": 3610000,
				"Normal": 12960000
			},
			"Hilla": 4000000,
			"OMNI-CLN": 6250000,
			"Papulatus": {
				"Easy": 3442500,
				"Normal": 13322500
			},
			"Pierre": 4840000,
			"Von Bon": 4840000,
			"Crimson Queen": 4840000,
			"Vellum": 4840000,
			"Von Leon": {
				"Easy": 5290000,
				"Normal": 7290000,
				"Hard": 12250000
			},
			"Horntail": {
				"Easy": 4410000,
				"Normal": 5062500,
				"Chaos": 6760000
			},
			"Arkarium": {
				"Easy": 5760000,
				"Normal": 12602500
			},
			"Pink Bean": 7022500,
			"Gollux": null,
			"Ranmaru": {
				"Normal": 4202500,
				"Hard": 13322500
			}
		}
	},
	"Weekly Bosses": {
		"day": 3,
		"size": 12,
		"checklist": true,
		"tasks": {
			"Chaos Zakum": 81000000,
			"Hard Magnus": 95062500,
			"Hard Hilla": 56250000,
			"Chaos Papulatus": 132250000,
			"Chaos Pierre": 81000000,
			"Chaos Von Bon": 81000000,
			"Chaos Queen": 81000000,
			"Chaos Vellum": 105062500,
			"Chaos Pink Bean": 64000000,
			"Cygnus": {
				"Easy": 42562500,
				"Normal": 72250000
			},
			"Lotus": {
				"Normal": 162562500,
				"Hard": 370562500
			},
			"Damien": {
				"Normal": 169000000,
				"Hard": 351562500
			},
			"Guardian Slime": {
				"Normal": 171610000,
				"Chaos": 451562500
			},
			"Lucid": {
				"Easy": 175562500,
				"Normal": 203062500,
				"Hard": 400000000
			},
			"Will": {
				"Easy": 191275000,
				"Normal": 232562500,
				"Hard": 441000000
			},
			"Gloom": {
				"Normal": 248062500,
				"Chaos": 462250000
			},
			"Verus Hilla": {
				"Normal": 447600000,
				"Hard": 552250000
			},
			"Darknell": {
				"Normal": 264062500,
				"Hard": 484000000
			},
			"Chosen Seren": {
				"Normal": 668437500,
				"Hard": 756250000,
				"Extreme": 3025000000
			},
			"Princess No": 81000000,
			"Akechi Mitsuhide": 144000000
		}
	},
	"Arcane River": {
		"day": -1,
		"size": -1,
		"checklist": true,
		"tasks": {
			"Vanishing Journey": null,
			"Vanishing Journey: Erda Spectrum": null,
			"Chu Chu Island": null,
			"Chu Chu Island: Hungry Muto": null,
			"Lachelein": null,
			"Lachelein: Dream Defender": null,
			"Arcana": null,
			"Arcana: Spirit Savior": null,
			"Morass": null,
			"Morass: Ranheim Defense": null,
			"Esfera": null,
			"Esfera: Esfera Guardian": null,
			"Tenbris": null
		}
	},
	"Other Dailies": {
		"day": -1,
		"size": -1,
		"checklist": false,
		"tasks": {
			"Maple Tour": null,
			"Commerci Trade": null,
			"Monster Park": null,
			"Phantom Forest": null,
			"Tower Of OZ": null
		}
	},
	"Monday Reset": {
		"day": 0,
		"size": -1,
		"checklist": false,
		"tasks": {
			"Scrapyard": null,
			"Dark World Tree": null
		}
	},
	"Account Wide": {
		"day": -1,
		"size": -1,
		"checklist": false,
		"tasks": {
			"Legion Quests": null,
			"Ursus": null,
			"Daily Gift": null
		}
	}
}